<svg width="23" height="20" viewBox="0 0 23 20" fill="none" xmlns="http://www.w3.org/2000/svg">
<path fill-rule="evenodd" clip-rule="evenodd" d="M11.5441 5.77809C6.04164 5.35992 2.44777 4.03589 1.26492 3C1.26492 4.10345 -1.68542 17.1087 12.1054 19C12.1054 19 20.9175 19.0034 21.9072 7.91227C22.0241 6.59529 22.0376 5.14644 21.9072 3.53101C20.6718 4.39512 17.4854 6.23096 11.5441 5.77809Z" stroke="#CE1745" stroke-width="2"/>
</svg>
