{
    "map_data": {
        "CN": 100000,
        "IN": 9900,
        "SA": 86,
        "EG": 70,
        "SE": 0,
        "FI": 0,
        "FR": 0,
        "US": 20
    },
    "top_nations": [
        {
            "id": 1,
            "name": "Cina",
            "percentage": "90"
        },
        {
            "id": 2,
            "name": "Stati Uniti",
            "percentage": "60"
        },
        {
            "id": 3,
            "name": "Italia",
            "percentage": "50"
        },
        {
            "id": 4,
            "name": "Francia",
            "percentage": "30"
        },
        {
            "id": 5,
            "name": "Spagna",
            "percentage": "20"
        }
    ],
    "seasons": [
        {
            "value": 335,
            "name": "Inverno"
        },
        {
            "value": 310,
            "name": "Primavera"
        },
        {
            "value": 234,
            "name": "Estate"
        },
        {
            "value": 135,
            "name": "Autunno"
        }
    ],
    "week_data": [
        {
            "name": "Lun",
            "value": 10
        },
        {
            "name": "Mar",
            "value": 20
        },
        {
            "name": "Mer",
            "value": 35
        },
        {
            "name": "Gio",
            "value": 25
        },
        {
            "name": "Ven",
            "value": 12
        },
        {
            "name": "Sab",
            "value": 3
        },
        {
            "name": "Dom",
            "value": 6
        }
    ],
    "time_slots": [
        {
            "value": 13,
            "name": "24:00 - 4:00"
        },
        {
            "value": 14,
            "name": "4:00 - 8:00"
        },
        {
            "value": 15,
            "name": "8:00 - 12:00"
        },
        {
            "value": 18,
            "name": "12:00 - 16:00"
        },
        {
            "value": 20,
            "name": "16:00 - 20:00"
        },
        {
            "value": 16,
            "name": "20:00 - 24:00"
        }
    ],
    "age_groups": [
        {
            "value": 335,
            "name": "18-30"
        },
        {
            "value": 310,
            "name": "31-45"
        },
        {
            "value": 234,
            "name": "45-54"
        },
        {
            "value": 135,
            "name": "55-64"
        },
        {
            "value": 1548,
            "name": "over 65"
        }
    ],
    "total_users": {
        "male": 23,
        "female": 77
    },
    "consumption": {
        "alone": 43,
        "with_others": 57
    },
    "consumption_period": {
        "meals": 58,
        "between_meals": 42
    },
    "pouring_options": {
        "taste": 65,
        "glass": 35
    }
}