{
    "id": "000001",
    "wine": {
        "wine_id": "000001",
        "wine_name": "Albiano Verdicchio Classico 2018",
        "winery": "Cantina Albi",
        "annata": "2016",
        "vitigno": "Sangiovese",
        "type": "Rosso",
        "grado_alcolico": "14",
        "temperatura_consigliata": "16",
        "aroma": "Lampone, Agrumi",
        "mood": "Con Amici",
        "imbottigliata": "12/01/2020",
        "prima_apertura": "23/05/2020",
        "ultimo_utilizzo": "24/05/2020",
        "temperatura_servizio_media": "18°C",
        "quantityLeft": 2,
        "bagCapacity": 5,
        "pairedTags": [
            {
                "type": "box",
                "tagId": "XX34356"
            }
        ]
    },
    "qualityScore": 90,
    "coordinates": {
        "latitude": 43.130,
        "longitude": 12.273
    },
    "blockchainLogs": [
        {
            "id": "001",
            "log": "Delivery",
            "user": "Mario Rossi",
            "userType": "Business",
            "description": "In Delivery",
            "date": "19/02/2020",
            "hour": "07:45",
            "location": "Corciano, PG",
            "parentTag": "-"
        },
        {
            "id": "002",
            "log": "Check",
            "user": "Sconosciuto",
            "userType": "Consumer",
            "description": "Check event",
            "date": "19/02/2020",
            "hour": "07:45",
            "location": "Corciano, PG",
            "parentTag": "-"
        },
        {
            "id": "003",
            "log": "Delivery",
            "user": "Mario Rossi",
            "userType": "Business",
            "description": "In Delivery",
            "date": "19/02/2020",
            "hour": "07:45",
            "location": "Corciano, PG",
            "parentTag": "BOX34958"
        },
        {
            "id": "004",
            "log": "Delivery",
            "user": "Mario Rossi",
            "userType": "Business",
            "description": "In Delivery",
            "date": "19/02/2020",
            "hour": "07:45",
            "location": "Corciano, PG",
            "parentTag": "-"
        },
        {
            "id": "005",
            "log": "Delivery",
            "user": "Mario Rossi",
            "userType": "Business",
            "description": "In Delivery",
            "date": "19/02/2020",
            "hour": "07:45",
            "location": "Corciano, PG",
            "parentTag": "-"
        }
    ]
}