{
    "id": "0000001",
    "tag": "453435",
    "packingDate": "04/04/2020",
    "qualityScores": [
        {
            "tier": "90",
            "wines": "4"
        },
        {
            "tier": "80",
            "wines": "2"
        },
        {
            "tier": "70",
            "wines": "0"
        },
        {
            "tier": "60",
            "wines": "0"
        }
    ],
    "coordinates": {
        "latitude": 43.130,
        "longitude": 12.273
    },
    "wineInside": [
        {
            "id": "1",
            "type": "bag",
            "tag": "409343",
            "wine": "Verdicchio",
            "winery": "Cantina Albi",
            "score": "90"
        },
        {
            "id": "2",
            "type": "box",
            "tag": "000002",
            "wine": "--",
            "winery": "--",
            "score": "80"
        },
        {
            "id": "3",
            "type": "box",
            "tag": "000003",
            "wine": "Verdicchio",
            "winery": "Cantina Albi",
            "score": "90"
        },
        {
            "id": "4",
            "type": "pallet",
            "tag": "000004",
            "wine": "Sangiovese",
            "winery": "Cantina Albi",
            "score": "80"
        },
        {
            "id": "5",
            "type": "bag",
            "tag": "000005",
            "wine": "Verdicchio",
            "winery": "Cantina Albi",
            "score": "90"
        },
        {
            "id": "6",
            "type": "bag",
            "tag": "000006",
            "wine": "Sangiovese",
            "winery": "Cantina Albi",
            "score": "90"
        }
    ],
    "blockchainLogs": [
        {
            "id": "001",
            "log": "Delivery",
            "user": "Mario Rossi",
            "userType": "Business",
            "description": "In Delivery",
            "timestamp": "19/02/2020 07:45",
            "location": "Corciano, PG"
        },
        {
            "id": "002",
            "log": "Delivery",
            "user": "Anna Rossi",
            "userType": "Business",
            "description": "In Delivery",
            "timestamp": "19/02/2020 07:45",
            "location": "Corciano, PG"
        },
        {
            "id": "003",
            "log": "Delivery",
            "user": "Giuseppe Verdi",
            "userType": "Business",
            "description": "In Delivery",
            "timestamp": "19/02/2020 07:45",
            "location": "Corciano, PG"
        },
        {
            "id": "004",
            "log": "Delivery",
            "user": "Mario Rossi",
            "userType": "Business",
            "description": "In Delivery",
            "timestamp": "19/02/2020 07:45",
            "location": "Corciano, PG"
        },
        {
            "id": "005",
            "log": "Delivery",
            "user": "Sconosciuto",
            "userType": "Business",
            "description": "In Delivery",
            "timestamp": "19/02/2020 07:45",
            "location": "Corciano, PG"
        },
        {
            "id": "006",
            "log": "Delivery",
            "user": "Sconosciuto",
            "userType": "Business",
            "description": "In Delivery",
            "timestamp": "19/02/2020 07:45",
            "location": "Corciano, PG"
        }
    ]
}