{
    "000001": {
        "most_sales": [
            {
                "id": 1,
                "name": "Albiano Verdicchio dei Castelli di Jesi Classico",
                "percentage": "32"
            },
            {
                "id": 2,
                "name": "Bianco di Torgiano DOCG",
                "percentage": "28"
            },
            {
                "id": 3,
                "name": "Umbria Chardonnay IGT",
                "percentage": "22"
            },
            {
                "id": 4,
                "name": "Grechetto di Todi Superiore IGT",
                "percentage": "10"
            },
            {
                "id": 6,
                "name": "Alto Adige Gewürztraminer DOC",
                "percentage": "8"
            }
        ],
        "map_data": {
            "CN": 100000,
            "IN": 9900,
            "SA": 86,
            "EG": 70,
            "SE": 0,
            "FI": 3,
            "FR": 10920,
            "US": 20,
            "IT": 18905,
            "ES": 13400
        },
        "top_nations": [
            {
                "id": 1,
                "name": "Cina",
                "percentage": "40"
            },
            {
                "id": 2,
                "name": "Stati Uniti",
                "percentage": "25"
            },
            {
                "id": 3,
                "name": "Italia",
                "percentage": "15"
            },
            {
                "id": 4,
                "name": "Francia",
                "percentage": "12"
            },
            {
                "id": 5,
                "name": "Spagna",
                "percentage": "8"
            }
        ],
        "age_groups": [
            {
                "value": 335,
                "name": "18-30"
            },
            {
                "value": 310,
                "name": "31-45"
            },
            {
                "value": 234,
                "name": "45-54"
            },
            {
                "value": 135,
                "name": "55-64"
            },
            {
                "value": 1548,
                "name": "over 65"
            }
        ],
        "time_slots": [
            {
                "value": 13,
                "name": "24:00 - 4:00"
            },
            {
                "value": 14,
                "name": "4:00 - 8:00"
            },
            {
                "value": 15,
                "name": "8:00 - 12:00"
            },
            {
                "value": 18,
                "name": "12:00 - 16:00"
            },
            {
                "value": 20,
                "name": "16:00 - 20:00"
            },
            {
                "value": 16,
                "name": "20:00 - 24:00"
            }
        ],
        "week_data": {
            "monday": 10,
            "tuesday": 20,
            "wednesday": 3,
            "thursday": 25,
            "friday": 12,
            "saturday": 3,
            "sunday": 6
        },
        "seasons": [
            {
                "value": 335,
                "name": "Inverno"
            },
            {
                "value": 310,
                "name": "Primavera"
            },
            {
                "value": 234,
                "name": "Estate"
            },
            {
                "value": 135,
                "name": "Autunno"
            }
        ]
    },
    "000002": {
        "most_sales": [
            {
                "id": 1,
                "name": "Albiano Verdicchio dei Castelli di Jesi Classico",
                "percentage": "32"
            },
            {
                "id": 2,
                "name": "Bianco di figon DOCG",
                "percentage": "28"
            },
            {
                "id": 3,
                "name": "Umbria Chardonnay IGT",
                "percentage": "22"
            },
            {
                "id": 4,
                "name": "Grechetto di Todi Superiore IGT",
                "percentage": "10"
            },
            {
                "id": 6,
                "name": "Alto Adige Gewürztraminer DOC",
                "percentage": "8"
            }
        ],
        "map_data": {
            "CN": 100000,
            "IN": 9900,
            "SA": 86,
            "EG": 70,
            "SE": 0,
            "FI": 3,
            "FR": 10920,
            "US": 20,
            "IT": 18905,
            "ES": 13400
        },
        "top_nations": [
            {
                "id": 1,
                "name": "Cina",
                "percentage": "90"
            },
            {
                "id": 2,
                "name": "Stati Uniti",
                "percentage": "60"
            },
            {
                "id": 3,
                "name": "Italia",
                "percentage": "50"
            },
            {
                "id": 4,
                "name": "Francia",
                "percentage": "30"
            },
            {
                "id": 5,
                "name": "Spagna",
                "percentage": "20"
            }
        ],
        "age_groups": [
            {
                "value": 335,
                "name": "18-30"
            },
            {
                "value": 310,
                "name": "31-45"
            },
            {
                "value": 234,
                "name": "45-54"
            },
            {
                "value": 135,
                "name": "55-64"
            },
            {
                "value": 1548,
                "name": "over 65"
            }
        ],
        "time_slots": [
            {
                "value": 13,
                "name": "24:00 - 4:00"
            },
            {
                "value": 14,
                "name": "4:00 - 8:00"
            },
            {
                "value": 15,
                "name": "8:00 - 12:00"
            },
            {
                "value": 18,
                "name": "12:00 - 16:00"
            },
            {
                "value": 20,
                "name": "16:00 - 20:00"
            },
            {
                "value": 16,
                "name": "20:00 - 24:00"
            }
        ],
        "week_data": {
            "monday": 10,
            "tuesday": 20,
            "wednesday": 35,
            "thursday": 25,
            "friday": 12,
            "saturday": 3,
            "sunday": 6
        },
        "seasons": [
            {
                "value": 335,
                "name": "Inverno"
            },
            {
                "value": 310,
                "name": "Primavera"
            },
            {
                "value": 234,
                "name": "Estate"
            },
            {
                "value": 135,
                "name": "Autunno"
            }
        ]
    }
}