{
	"id": "456787",
    "createdAt": 1548069000,
	"firstname": "Mario",
	"lastname": "Rossi",
	"gender": "M",
	"nationality": "Italian",
	"email": "mario.rossi@email.com",
	"birthdate": "23/01/1988",
	"preferredLanguage": "IT",
	"measureSystem": "metric",
	"dateFormat": "dd/mm/yyy",
	"hourFormat": "24h",
	"firstDayOfWeek": "monday",
	"albicchiereNewsletter": false,
	"dashboardNewsletter": false,
	"emailNotifications": true,
	"notifications": "",
	"messages": "",
	"linkedCompanies": [
		{
			"id": "000001",
			"companyName": "Cantina Albi",
			"img": "https://...",
			"subscriptions": ["albi_pro", "albi_blockchain"]
		},
		{
			"id": "000002",
			"companyName": "Albi Resorts",
			"img": "https://...",
			"subscriptions": ["albi_restaurants_free"]
		},
		{
			"id": "000003",
			"companyName": "Albi Luxury Hotels",
			"img": "https://...",
			"subscriptions": ["albi_hotels_free"]
		}
	]
}