{
    "id": "000001",
    "year": "2018",
    "wine_name": "Albiano Verdicchio dei Castelli di Jesi Classico",
    "cantina": "Marotti Campi",
    "type": "Bianco",
    "denominazione": "Verdicchio dei Castelli di Jesi Classico DOC",
    "vitigno": "Verdicchio 100%",
    "grado_alcolico": "13%",
    "temperatura_consigliata": "13°C",
    "mood": "Aperitivo",
    "piatti_suggeriti": "Antipasti di pesce, Molluschi, Primi di terra, Secondi di pesce",
    "descrizione": "Il verdicchio è l’uva che Marotti Campi si diletta a declinare in più etichette; un vitigno autoctono molto antico, che in questo terroir riesce a dare vita a prodotti davvero unici, a seconda di come viene interpretato. In particolare, questo Verdicchio dei Castelli di Jesi Classico DOC “Albiano” rappresenta la versione più fresca e immediata di tutta la gamma, con profumi semplici e una buona bevibilità. Le uve, dopo una pressatura soffice, fermentano in acciaio a 15 °C, dove poi proseguono ad affinare per circa 5 mesi. L’orgoglio dell’enologia marchigiana nel bicchiere, in una versione allegra e beverina: approfittatene!",
    "abbinamenti": "Ottimo con antipasti leggeri e con primi e secondi piatti dalle preparazioni semplici. Perfetto anche per l’aperitivo, è da urlo con il brodetto all’anconetana.",
    "awards": "Secondi di pesce",
    "state": "Confirmed",
    "on_sale": true,
    "format": "bag",
    "img": {
        "label": "",
        "bottle": "",
        "other_images": []
    },
    "reviews": {
        "one_star": 8,
        "two_star": 13,
        "three_star": 19,
        "four_star": 24,
        "five_star": 36
    },
    "map_data": {
        "CN": 100000,
        "IN": 9900,
        "SA": 86,
        "EG": 70,
        "SE": 0,
        "FI": 0,
        "FR": 0,
        "US": 20,
        "ZA": 32
    },
    "total_users": {
        "male": 23,
        "female": 77
    },
    "age_groups": [
        {
            "value": 335,
            "name": "18-30"
        },
        {
            "value": 310,
            "name": "31-45"
        },
        {
            "value": 234,
            "name": "45-54"
        },
        {
            "value": 135,
            "name": "55-64"
        },
        {
            "value": 1548,
            "name": "over 65"
        }
    ],
    "consumption_period": {
        "meals": 65,
        "between_meals": 35
    },
    "nationality": [
        {
            "id": 1,
            "name": "Cina",
            "percentage": "90"
        },
        {
            "id": 2,
            "name": "Stati Uniti",
            "percentage": "60"
        },
        {
            "id": 3,
            "name": "Italia",
            "percentage": "50"
        },
        {
            "id": 4,
            "name": "Francia",
            "percentage": "30"
        },
        {
            "id": 5,
            "name": "Spagna",
            "percentage": "20"
        }
    ],
    "time_slots": [
        {
            "value": 13,
            "name": "24:00 - 4:00"
        },
        {
            "value": 14,
            "name": "4:00 - 8:00"
        },
        {
            "value": 15,
            "name": "8:00 - 12:00"
        },
        {
            "value": 18,
            "name": "12:00 - 16:00"
        },
        {
            "value": 20,
            "name": "16:00 - 20:00"
        },
        {
            "value": 16,
            "name": "20:00 - 24:00"
        }
    ],
    "week_data": [
        {
            "name": "Lun",
            "value": 10
        },
        {
            "name": "Mar",
            "value": 20
        },
        {
            "name": "Mer",
            "value": 35
        },
        {
            "name": "Gio",
            "value": 25
        },
        {
            "name": "Ven",
            "value": 12
        },
        {
            "name": "Sab",
            "value": 3
        },
        {
            "name": "Dom",
            "value": 6
        }
    ],
    "seasons": {
        "winter": 335,
        "spring": 310,
        "summer": 234,
        "autumn": 135
  }
}